Practical Introduction to ExpertChoice
…
question_table_f55 <- construct_question_frame(aff55, dce_modulo)

It is now time to add some useful information back to the levels. Originally these were described in Step 0, but up until this point it has been necessary to work with only integer values. (Also just imagine if you had worked with these very long names up until this point…)

levels(question_table_f55$maker) <- c("common (bottom 50% of makers)", "known to specialists (50% to 65% of makers)", "recognised (65% to 80%)", "famous (80% to 90%)", "celebrated top 10%")
levels(question_table_f55$technical) <- c("below average (below 50% of craftmanship)", "good (50% to 65%)", "meritorious (65% to 80%)", "distinguished (80% to 90%)", "exquisite (top 10%)")
levels(question_table_f55$category_rarity) <- c("common (bottom 20%)", "uncommon (20% to 40%)", "rare (40% to 60%)", "very rare (60% to 80%)", "exceptional (top 20%)")
levels(question_table_f55$size) <- c("petite: under 125g", "small: between 126g and 275g", "medium: between 276g and 600g", "large: between 601g and 1200g", "extra large: exceeds 1200g")
levels(question_table_f55$age) <- c("1951-present", "1951-present", "1951-present", "1951-present", "before 1800")
# View(question_table_f4521)

Viola! Here is the completed question dataframe.

question_table_f55
#> # A tibble: 75 x 8
#>    question choice levels maker     technical     category_rarity  size    age  
#>       <int>  <int> <chr>  <fct>     <fct>         <fct>            <fct>   <fct>
#>  1        1      1 11111  known to~ good (50% to~ uncommon (20% t~ small:~ 1951~
#>  2        1      2 33333  famous (~ distinguishe~ very rare (60% ~ large:~ 1951~
#>  3        1      3 00000  common (~ below averag~ common (bottom ~ petite~ 1951~
#>  4        2      1 33333  famous (~ distinguishe~ very rare (60% ~ large:~ 1951~
#>  5        2      2 00000  common (~ below averag~ common (bottom ~ petite~ 1951~
#>  6        2      3 22222  recognis~ meritorious ~ rare (40% to 60~ medium~ 1951~
#>  7        3      1 24130  recognis~ exquisite (t~ uncommon (20% t~ large:~ 1951~
#>  8        3      2 41302  celebrat~ good (50% to~ very rare (60% ~ petite~ 1951~
#>  9        3      3 13024  known to~ distinguishe~ common (bottom ~ medium~ befo~
#> 10        4      1 01234  common (~ good (50% to~ rare (40% to 60~ large:~ befo~
#> # ... with 65 more rows
…
# Step 9
# Construct the question table
menu_question_table <- construct_question_frame(aff_examp, dce_modulo_examp2)

# Finally augment the question table. See Table 1 in the Theoretical Vignette.
levels(menu_question_table$starter) <- c("Tomato Soup", "Duck Rillettes", "Seafood Chowder")
levels(menu_question_table$main) <- c("Roast Pheasant", "Pan Fried Hake", "Pork Belly", "Mushroom Risotto", "Sirloin Steak", "Vegetable Bake")
levels(menu_question_table$dessert) <- c("Sticky Toffee Pudding", "Chocolate & Hazelnut Brownie", "Cheesecake")
#View(menu_question_table)

Finally here is the resulting question table.

menu_question_table
#> # A tibble: 72 x 6
#>    question choice levels starter        main           dessert                 
#>       <int>  <int> <chr>  <fct>          <fct>          <fct>                   
#>  1        1      1 331    Seafood Chowd~ Pork Belly     Sticky Toffee Pudding   
#>  2        1      2 132    Tomato Soup    Pork Belly     Chocolate & Hazelnut Br~
#>  3        1      3 162    Tomato Soup    Vegetable Bake Chocolate & Hazelnut Br~
#>  4        1      4 321    Seafood Chowd~ Pan Fried Hake Sticky Toffee Pudding   
#>  5        2      1 341    Seafood Chowd~ Mushroom Riso~ Sticky Toffee Pudding   
#>  6        2      2 142    Tomato Soup    Mushroom Riso~ Chocolate & Hazelnut Br~
#>  7        2      3 112    Tomato Soup    Roast Pheasant Chocolate & Hazelnut Br~
#>  8        2      4 331    Seafood Chowd~ Pork Belly     Sticky Toffee Pudding   
#>  9        3      1 163    Tomato Soup    Vegetable Bake Cheesecake              
#> 10        3      2 261    Duck Rillettes Vegetable Bake Sticky Toffee Pudding   
#> # ... with 62 more rows
…
